[2021-04-21 07:11:38.979] [exthost] [info] extension host started
[2021-04-21 07:11:39.071] [exthost] [info] ExtensionService#_doActivateExtension vscode.css-language-features {"startup":false,"extensionId":{"value":"vscode.css-language-features","_lower":"vscode.css-language-features"},"activationEvent":"onLanguage:css"}
[2021-04-21 07:11:39.072] [exthost] [info] ExtensionService#loadCommonJSModule file:///root/.vscode-server/bin/3c4e3df9e89829dce27b7b5c24508306b151f30d/extensions/css-language-features/client/dist/node/cssClientMain
[2021-04-21 07:11:39.131] [exthost] [info] ExtensionService#_doActivateExtension vscode.emmet {"startup":false,"extensionId":{"value":"vscode.emmet","_lower":"vscode.emmet"},"activationEvent":"onLanguage:css"}
[2021-04-21 07:11:39.131] [exthost] [info] ExtensionService#loadCommonJSModule file:///root/.vscode-server/bin/3c4e3df9e89829dce27b7b5c24508306b151f30d/extensions/emmet/dist/node/emmetNodeMain
[2021-04-21 07:11:39.152] [exthost] [info] ExtensionService#_doActivateExtension vscode.debug-auto-launch {"startup":true,"extensionId":{"value":"vscode.debug-auto-launch","_lower":"vscode.debug-auto-launch"},"activationEvent":"*"}
[2021-04-21 07:11:39.153] [exthost] [info] ExtensionService#loadCommonJSModule file:///root/.vscode-server/bin/3c4e3df9e89829dce27b7b5c24508306b151f30d/extensions/debug-auto-launch/dist/extension
[2021-04-21 07:11:39.161] [exthost] [info] ExtensionService#_doActivateExtension vscode.git {"startup":true,"extensionId":{"value":"vscode.github","_lower":"vscode.github"},"activationEvent":"*"}
[2021-04-21 07:11:39.161] [exthost] [info] ExtensionService#loadCommonJSModule file:///root/.vscode-server/bin/3c4e3df9e89829dce27b7b5c24508306b151f30d/extensions/git/dist/main
[2021-04-21 07:11:39.256] [exthost] [info] ExtensionService#_doActivateExtension alexiv.vscode-angular2-files {"startup":true,"extensionId":{"value":"alexiv.vscode-angular2-files","_lower":"alexiv.vscode-angular2-files"},"activationEvent":"*"}
[2021-04-21 07:11:39.256] [exthost] [info] ExtensionService#loadCommonJSModule file:///root/.vscode-server/extensions/alexiv.vscode-angular2-files-1.6.4/out/src/extension
[2021-04-21 07:11:39.309] [exthost] [info] ExtensionService#_doActivateExtension christian-kohler.path-intellisense {"startup":true,"extensionId":{"value":"christian-kohler.path-intellisense","_lower":"christian-kohler.path-intellisense"},"activationEvent":"*"}
[2021-04-21 07:11:39.309] [exthost] [info] ExtensionService#loadCommonJSModule file:///root/.vscode-server/extensions/christian-kohler.path-intellisense-2.3.0/out/extension.js
[2021-04-21 07:11:39.351] [exthost] [info] ExtensionService#_doActivateExtension EditorConfig.EditorConfig {"startup":true,"extensionId":{"value":"EditorConfig.EditorConfig","_lower":"editorconfig.editorconfig"},"activationEvent":"*"}
[2021-04-21 07:11:39.351] [exthost] [info] ExtensionService#loadCommonJSModule file:///root/.vscode-server/extensions/editorconfig.editorconfig-0.16.4/out/editorConfigMain.js
[2021-04-21 07:11:39.392] [exthost] [info] ExtensionService#_doActivateExtension formulahendry.auto-rename-tag {"startup":true,"extensionId":{"value":"formulahendry.auto-rename-tag","_lower":"formulahendry.auto-rename-tag"},"activationEvent":"*"}
[2021-04-21 07:11:39.392] [exthost] [info] ExtensionService#loadCommonJSModule file:///root/.vscode-server/extensions/formulahendry.auto-rename-tag-0.1.6/packages/extension/dist/extensionMain.js
[2021-04-21 07:11:39.457] [exthost] [info] ExtensionService#_doActivateExtension infinity1207.angular2-switcher {"startup":true,"extensionId":{"value":"infinity1207.angular2-switcher","_lower":"infinity1207.angular2-switcher"},"activationEvent":"*"}
[2021-04-21 07:11:39.457] [exthost] [info] ExtensionService#loadCommonJSModule file:///root/.vscode-server/extensions/infinity1207.angular2-switcher-0.3.4/out/extension.js
[2021-04-21 07:11:39.470] [exthost] [info] ExtensionService#_doActivateExtension vscode.npm {"startup":true,"extensionId":{"value":"vscode.npm","_lower":"vscode.npm"},"activationEvent":"workspaceContains:package.json"}
[2021-04-21 07:11:39.470] [exthost] [info] ExtensionService#loadCommonJSModule file:///root/.vscode-server/bin/3c4e3df9e89829dce27b7b5c24508306b151f30d/extensions/npm/dist/npmMain
[2021-04-21 07:11:39.896] [exthost] [info] ExtensionService#_doActivateExtension cyrilletuzi.angular-schematics {"startup":true,"extensionId":{"value":"cyrilletuzi.angular-schematics","_lower":"cyrilletuzi.angular-schematics"},"activationEvent":"workspaceContains:**/angular.json,**/.angular.json,**/angular-cli.json,**/.angular-cli.json"}
[2021-04-21 07:11:39.896] [exthost] [info] ExtensionService#loadCommonJSModule file:///root/.vscode-server/extensions/cyrilletuzi.angular-schematics-4.13.0/dist/extension.js
[2021-04-21 07:11:40.274] [exthost] [info] ExtensionService#_doActivateExtension vscode.github {"startup":true,"extensionId":{"value":"vscode.github","_lower":"vscode.github"},"activationEvent":"*"}
[2021-04-21 07:11:40.275] [exthost] [info] ExtensionService#loadCommonJSModule file:///root/.vscode-server/bin/3c4e3df9e89829dce27b7b5c24508306b151f30d/extensions/github/dist/extension.js
[2021-04-21 07:11:40.426] [exthost] [info] ExtensionService#_doActivateExtension ms-vscode.js-debug {"startup":false,"extensionId":{"value":"ms-vscode.js-debug","_lower":"ms-vscode.js-debug"},"activationEvent":"onCommand:extension.js-debug.clearAutoAttachVariables"}
[2021-04-21 07:11:40.426] [exthost] [info] ExtensionService#loadCommonJSModule file:///root/.vscode-server/bin/3c4e3df9e89829dce27b7b5c24508306b151f30d/extensions/ms-vscode.js-debug/src/extension.js
[2021-04-21 07:11:41.076] [exthost] [info] ExtensionService#_doActivateExtension vscode.merge-conflict {"startup":false,"extensionId":{"value":"vscode.merge-conflict","_lower":"vscode.merge-conflict"},"activationEvent":"onStartupFinished"}
[2021-04-21 07:11:41.076] [exthost] [info] ExtensionService#loadCommonJSModule file:///root/.vscode-server/bin/3c4e3df9e89829dce27b7b5c24508306b151f30d/extensions/merge-conflict/dist/mergeConflictMain
[2021-04-21 07:11:41.086] [exthost] [info] ExtensionService#_doActivateExtension vscode.testing-editor-contributions {"startup":false,"extensionId":{"value":"vscode.testing-editor-contributions","_lower":"vscode.testing-editor-contributions"},"activationEvent":"onStartupFinished"}
[2021-04-21 07:11:41.086] [exthost] [info] ExtensionService#loadCommonJSModule file:///root/.vscode-server/bin/3c4e3df9e89829dce27b7b5c24508306b151f30d/extensions/testing-editor-contributions/dist/extension.js
[2021-04-21 07:11:41.090] [exthost] [info] ExtensionService#_doActivateExtension esbenp.prettier-vscode {"startup":false,"extensionId":{"value":"esbenp.prettier-vscode","_lower":"esbenp.prettier-vscode"},"activationEvent":"onStartupFinished"}
[2021-04-21 07:11:41.090] [exthost] [info] ExtensionService#loadCommonJSModule file:///root/.vscode-server/extensions/esbenp.prettier-vscode-6.3.2/dist/extension
[2021-04-21 07:11:41.306] [exthost] [info] eager extensions activated
[2021-04-21 07:12:40.892] [exthost] [warning] [Decorations] CAPPING events from decorations provider vscode.git 252
[2021-04-21 07:12:46.054] [exthost] [warning] [Decorations] CAPPING events from decorations provider vscode.git 252
[2021-04-21 07:12:52.701] [exthost] [warning] [Decorations] CAPPING events from decorations provider vscode.git 252
[2021-04-21 07:13:12.590] [exthost] [warning] [Decorations] CAPPING events from decorations provider vscode.git 252
[2021-04-21 07:15:13.200] [exthost] [warning] [Decorations] CAPPING events from decorations provider vscode.git 252
[2021-04-21 07:15:18.335] [exthost] [warning] [Decorations] CAPPING events from decorations provider vscode.git 252
[2021-04-21 07:15:23.462] [exthost] [warning] [Decorations] CAPPING events from decorations provider vscode.git 252
[2021-04-21 07:15:28.615] [exthost] [warning] [Decorations] CAPPING events from decorations provider vscode.git 252
[2021-04-21 07:15:33.798] [exthost] [warning] [Decorations] CAPPING events from decorations provider vscode.git 257
[2021-04-21 07:15:35.904] [exthost] [info] ExtensionService#_doActivateExtension vscode.extension-editing {"startup":false,"extensionId":{"value":"vscode.extension-editing","_lower":"vscode.extension-editing"},"activationEvent":"onLanguage:typescript"}
[2021-04-21 07:15:35.905] [exthost] [info] ExtensionService#loadCommonJSModule file:///root/.vscode-server/bin/3c4e3df9e89829dce27b7b5c24508306b151f30d/extensions/extension-editing/dist/extensionEditingMain
[2021-04-21 07:15:35.937] [exthost] [info] ExtensionService#_doActivateExtension vscode.typescript-language-features {"startup":false,"extensionId":{"value":"vscode.typescript-language-features","_lower":"vscode.typescript-language-features"},"activationEvent":"onLanguage:typescript"}
[2021-04-21 07:15:35.938] [exthost] [info] ExtensionService#loadCommonJSModule file:///root/.vscode-server/bin/3c4e3df9e89829dce27b7b5c24508306b151f30d/extensions/typescript-language-features/dist/extension
[2021-04-21 07:15:35.989] [exthost] [info] ExtensionService#_doActivateExtension Angular.ng-template {"startup":false,"extensionId":{"value":"Angular.ng-template","_lower":"angular.ng-template"},"activationEvent":"onLanguage:typescript"}
[2021-04-21 07:15:35.989] [exthost] [info] ExtensionService#loadCommonJSModule file:///root/.vscode-server/extensions/angular.ng-template-11.2.11/index
[2021-04-21 07:15:36.685] [exthost] [info] ExtensionService#_doActivateExtension ms-vscode.vscode-typescript-tslint-plugin {"startup":false,"extensionId":{"value":"ms-vscode.vscode-typescript-tslint-plugin","_lower":"ms-vscode.vscode-typescript-tslint-plugin"},"activationEvent":"onLanguage:typescript"}
[2021-04-21 07:15:36.685] [exthost] [info] ExtensionService#loadCommonJSModule file:///root/.vscode-server/extensions/ms-vscode.vscode-typescript-tslint-plugin-1.3.3/out/index.js
[2021-04-21 07:15:36.686] [exthost] [info] ExtensionService#_doActivateExtension rbbit.typescript-hero {"startup":false,"extensionId":{"value":"rbbit.typescript-hero","_lower":"rbbit.typescript-hero"},"activationEvent":"onLanguage:typescript"}
[2021-04-21 07:15:36.686] [exthost] [info] ExtensionService#loadCommonJSModule file:///root/.vscode-server/extensions/rbbit.typescript-hero-3.0.0/out/src/extension
[2021-04-21 07:15:37.145] [exthost] [info] ExtensionService#_doActivateExtension steoates.autoimport {"startup":false,"extensionId":{"value":"steoates.autoimport","_lower":"steoates.autoimport"},"activationEvent":"onLanguage:typescript"}
[2021-04-21 07:15:37.145] [exthost] [info] ExtensionService#loadCommonJSModule file:///root/.vscode-server/extensions/steoates.autoimport-1.5.4/out/src/extension
[2021-04-21 07:15:37.167] [exthost] [error] Activating extension ms-vscode.vscode-typescript-tslint-plugin failed due to an error:
[2021-04-21 07:15:37.179] [exthost] [error] Error: Cannot find module '/root/.vscode-server/extensions/ms-vscode.vscode-typescript-tslint-plugin-1.3.3/out/index.js'
Require stack:
- /root/.vscode-server/bin/3c4e3df9e89829dce27b7b5c24508306b151f30d/out/vs/loader.js
- /root/.vscode-server/bin/3c4e3df9e89829dce27b7b5c24508306b151f30d/out/bootstrap-amd.js
- /root/.vscode-server/bin/3c4e3df9e89829dce27b7b5c24508306b151f30d/out/bootstrap-fork.js
    at Function.Module._resolveFilename (internal/modules/cjs/loader.js:965:15)
    at Function.Module._load (internal/modules/cjs/loader.js:841:27)
    at Function.o._load (/root/.vscode-server/bin/3c4e3df9e89829dce27b7b5c24508306b151f30d/out/vs/server/remoteExtensionHostProcess.js:105:27791)
    at Function.E._load (/root/.vscode-server/bin/3c4e3df9e89829dce27b7b5c24508306b151f30d/out/vs/server/remoteExtensionHostProcess.js:105:24509)
    at Function.a._load (/root/.vscode-server/bin/3c4e3df9e89829dce27b7b5c24508306b151f30d/out/vs/server/remoteExtensionHostProcess.js:95:59194)
    at Module.require (internal/modules/cjs/loader.js:1025:19)
    at require (internal/modules/cjs/helpers.js:72:18)
    at Function.t [as __$__nodeRequire] (/root/.vscode-server/bin/3c4e3df9e89829dce27b7b5c24508306b151f30d/out/vs/loader.js:5:101)
    at h._loadCommonJSModule (/root/.vscode-server/bin/3c4e3df9e89829dce27b7b5c24508306b151f30d/out/vs/server/remoteExtensionHostProcess.js:105:25918)
    at h._doActivateExtension (/root/.vscode-server/bin/3c4e3df9e89829dce27b7b5c24508306b151f30d/out/vs/server/remoteExtensionHostProcess.js:91:12016)
    at h._activateExtension (/root/.vscode-server/bin/3c4e3df9e89829dce27b7b5c24508306b151f30d/out/vs/server/remoteExtensionHostProcess.js:91:11072)
    at Object.actualActivateExtension (/root/.vscode-server/bin/3c4e3df9e89829dce27b7b5c24508306b151f30d/out/vs/server/remoteExtensionHostProcess.js:91:8724)
    at g._activateExtension (/root/.vscode-server/bin/3c4e3df9e89829dce27b7b5c24508306b151f30d/out/vs/server/remoteExtensionHostProcess.js:86:84922)
    at /root/.vscode-server/bin/3c4e3df9e89829dce27b7b5c24508306b151f30d/out/vs/server/remoteExtensionHostProcess.js:86:84604
    at Array.map (<anonymous>)
    at g._activateExtensions (/root/.vscode-server/bin/3c4e3df9e89829dce27b7b5c24508306b151f30d/out/vs/server/remoteExtensionHostProcess.js:86:84592)
    at g.activateByEvent (/root/.vscode-server/bin/3c4e3df9e89829dce27b7b5c24508306b151f30d/out/vs/server/remoteExtensionHostProcess.js:86:82162)
    at h._activateByEvent (/root/.vscode-server/bin/3c4e3df9e89829dce27b7b5c24508306b151f30d/out/vs/server/remoteExtensionHostProcess.js:91:9630)
    at /root/.vscode-server/bin/3c4e3df9e89829dce27b7b5c24508306b151f30d/out/vs/server/remoteExtensionHostProcess.js:91:18996
    at runMicrotasks (<anonymous>)
    at processTicksAndRejections (internal/process/task_queues.js:97:5)
[2021-04-21 07:15:37.179] [exthost] [error] Activating extension steoates.autoimport failed due to an error:
[2021-04-21 07:15:37.180] [exthost] [error] Error: Cannot find module '/root/.vscode-server/extensions/steoates.autoimport-1.5.4/out/src/extension'
Require stack:
- /root/.vscode-server/bin/3c4e3df9e89829dce27b7b5c24508306b151f30d/out/vs/loader.js
- /root/.vscode-server/bin/3c4e3df9e89829dce27b7b5c24508306b151f30d/out/bootstrap-amd.js
- /root/.vscode-server/bin/3c4e3df9e89829dce27b7b5c24508306b151f30d/out/bootstrap-fork.js
    at Function.Module._resolveFilename (internal/modules/cjs/loader.js:965:15)
    at Function.Module._load (internal/modules/cjs/loader.js:841:27)
    at Function.o._load (/root/.vscode-server/bin/3c4e3df9e89829dce27b7b5c24508306b151f30d/out/vs/server/remoteExtensionHostProcess.js:105:27791)
    at Function.E._load (/root/.vscode-server/bin/3c4e3df9e89829dce27b7b5c24508306b151f30d/out/vs/server/remoteExtensionHostProcess.js:105:24509)
    at Function.a._load (/root/.vscode-server/bin/3c4e3df9e89829dce27b7b5c24508306b151f30d/out/vs/server/remoteExtensionHostProcess.js:95:59194)
    at Module.require (internal/modules/cjs/loader.js:1025:19)
    at require (internal/modules/cjs/helpers.js:72:18)
    at Function.t [as __$__nodeRequire] (/root/.vscode-server/bin/3c4e3df9e89829dce27b7b5c24508306b151f30d/out/vs/loader.js:5:101)
    at h._loadCommonJSModule (/root/.vscode-server/bin/3c4e3df9e89829dce27b7b5c24508306b151f30d/out/vs/server/remoteExtensionHostProcess.js:105:25918)
    at h._doActivateExtension (/root/.vscode-server/bin/3c4e3df9e89829dce27b7b5c24508306b151f30d/out/vs/server/remoteExtensionHostProcess.js:91:12016)
    at h._activateExtension (/root/.vscode-server/bin/3c4e3df9e89829dce27b7b5c24508306b151f30d/out/vs/server/remoteExtensionHostProcess.js:91:11072)
    at Object.actualActivateExtension (/root/.vscode-server/bin/3c4e3df9e89829dce27b7b5c24508306b151f30d/out/vs/server/remoteExtensionHostProcess.js:91:8724)
    at g._activateExtension (/root/.vscode-server/bin/3c4e3df9e89829dce27b7b5c24508306b151f30d/out/vs/server/remoteExtensionHostProcess.js:86:84922)
    at /root/.vscode-server/bin/3c4e3df9e89829dce27b7b5c24508306b151f30d/out/vs/server/remoteExtensionHostProcess.js:86:84604
    at Array.map (<anonymous>)
    at g._activateExtensions (/root/.vscode-server/bin/3c4e3df9e89829dce27b7b5c24508306b151f30d/out/vs/server/remoteExtensionHostProcess.js:86:84592)
    at g.activateByEvent (/root/.vscode-server/bin/3c4e3df9e89829dce27b7b5c24508306b151f30d/out/vs/server/remoteExtensionHostProcess.js:86:82162)
    at h._activateByEvent (/root/.vscode-server/bin/3c4e3df9e89829dce27b7b5c24508306b151f30d/out/vs/server/remoteExtensionHostProcess.js:91:9630)
    at /root/.vscode-server/bin/3c4e3df9e89829dce27b7b5c24508306b151f30d/out/vs/server/remoteExtensionHostProcess.js:91:18996
    at runMicrotasks (<anonymous>)
    at processTicksAndRejections (internal/process/task_queues.js:97:5)
[2021-04-21 07:15:43.295] [exthost] [info] ExtensionService#_doActivateExtension vscode.configuration-editing {"startup":false,"extensionId":{"value":"vscode.configuration-editing","_lower":"vscode.configuration-editing"},"activationEvent":"onLanguage:jsonc"}
[2021-04-21 07:15:43.295] [exthost] [info] ExtensionService#loadCommonJSModule file:///root/.vscode-server/bin/3c4e3df9e89829dce27b7b5c24508306b151f30d/extensions/configuration-editing/dist/configurationEditingMain
[2021-04-21 07:15:43.307] [exthost] [info] ExtensionService#_doActivateExtension vscode.json-language-features {"startup":false,"extensionId":{"value":"vscode.json-language-features","_lower":"vscode.json-language-features"},"activationEvent":"onLanguage:jsonc"}
[2021-04-21 07:15:43.307] [exthost] [info] ExtensionService#loadCommonJSModule file:///root/.vscode-server/bin/3c4e3df9e89829dce27b7b5c24508306b151f30d/extensions/json-language-features/client/dist/node/jsonClientMain
[2021-04-21 07:15:57.615] [exthost] [warning] [Decorations] CAPPING events from decorations provider vscode.git 261
[2021-04-21 07:16:02.750] [exthost] [warning] [Decorations] CAPPING events from decorations provider vscode.git 261
[2021-04-21 07:16:07.884] [exthost] [warning] [Decorations] CAPPING events from decorations provider vscode.git 261
[2021-04-21 07:16:13.016] [exthost] [warning] [Decorations] CAPPING events from decorations provider vscode.git 261
[2021-04-21 07:17:56.916] [exthost] [warning] [Decorations] CAPPING events from decorations provider vscode.git 261
[2021-04-21 07:18:02.052] [exthost] [warning] [Decorations] CAPPING events from decorations provider vscode.git 261
[2021-04-21 07:18:47.843] [exthost] [warning] [Decorations] CAPPING events from decorations provider vscode.git 261
[2021-04-21 07:18:53.011] [exthost] [warning] [Decorations] CAPPING events from decorations provider vscode.git 261
[2021-04-21 07:18:58.152] [exthost] [warning] [Decorations] CAPPING events from decorations provider vscode.git 261
[2021-04-21 07:19:03.290] [exthost] [warning] [Decorations] CAPPING events from decorations provider vscode.git 261
[2021-04-21 07:19:08.419] [exthost] [warning] [Decorations] CAPPING events from decorations provider vscode.git 261
[2021-04-21 07:19:13.547] [exthost] [warning] [Decorations] CAPPING events from decorations provider vscode.git 261
[2021-04-21 07:19:18.721] [exthost] [warning] [Decorations] CAPPING events from decorations provider vscode.git 261
[2021-04-21 07:19:23.868] [exthost] [warning] [Decorations] CAPPING events from decorations provider vscode.git 261
[2021-04-21 07:19:29.001] [exthost] [warning] [Decorations] CAPPING events from decorations provider vscode.git 262
[2021-04-21 07:19:34.131] [exthost] [warning] [Decorations] CAPPING events from decorations provider vscode.git 262
[2021-04-21 07:19:39.262] [exthost] [warning] [Decorations] CAPPING events from decorations provider vscode.git 262
[2021-04-21 07:19:44.402] [exthost] [warning] [Decorations] CAPPING events from decorations provider vscode.git 263
[2021-04-21 07:19:52.391] [exthost] [warning] [Decorations] CAPPING events from decorations provider vscode.git 430
[2021-04-21 07:20:00.494] [exthost] [warning] [Decorations] CAPPING events from decorations provider vscode.git 694
[2021-04-21 07:34:48.649] [exthost] [info] ExtensionService#_doActivateExtension vscode.html-language-features {"startup":false,"extensionId":{"value":"vscode.html-language-features","_lower":"vscode.html-language-features"},"activationEvent":"onLanguage:html"}
[2021-04-21 07:34:48.650] [exthost] [info] ExtensionService#loadCommonJSModule file:///root/.vscode-server/bin/3c4e3df9e89829dce27b7b5c24508306b151f30d/extensions/html-language-features/client/dist/node/htmlClientMain
[2021-04-21 07:34:48.738] [exthost] [info] ExtensionService#_doActivateExtension obenjiro.arrr {"startup":false,"extensionId":{"value":"obenjiro.arrr","_lower":"obenjiro.arrr"},"activationEvent":"onLanguage:html"}
[2021-04-21 07:34:48.738] [exthost] [info] ExtensionService#loadCommonJSModule file:///root/.vscode-server/extensions/obenjiro.arrr-0.1.3/out/extension.js
[2021-04-21 08:43:17.082] [exthost] [info] extension host terminating: received terminate message from renderer
[2021-04-21 08:43:18.186] [exthost] [info] exiting with code 0
