[Info  - 07:15:37.259] Starting TS Server 
[Info  - 07:15:37.259] Using tsserver from: /root/.vscode-server/bin/3c4e3df9e89829dce27b7b5c24508306b151f30d/extensions/node_modules/typescript/lib/tsserver.js
[Info  - 07:15:37.263] <syntax> Forking...
[Info  - 07:15:37.273] <syntax> Starting...
[Info  - 07:15:37.274] <semantic> Forking...
[Info  - 07:15:37.281] <semantic> Starting...
[Info  - 08:43:17.209] TSServer exited
[Info  - 08:43:17.210] Starting TS Server 
[Info  - 08:43:17.210] Not starting server. Disposed 
